Linear solve converged due to CONVERGED_RTOL iterations 9
Linear solve converged due to CONVERGED_RTOL iterations 9
Linear solve converged due to CONVERGED_RTOL iterations 9
[0]main |b-Ax|/|b|=1.866474e-04, |b|=4.969822e+00, emax=9.937008e-01
